vhdl/blatt6/threebitcounter/threebc.vcd
$date
  Sun Mar  9 13:50:33 2014
$end
$version
  GHDL v0
$end
$timescale
  1 fs
$end
$var reg 3 ! b[2:0] $end
$var reg 1 " clk $end
$scope module threebc0 $end
$var reg 1 # count $end
$var reg 3 $ cout[2:0] $end
$var reg 3 % output[2:0] $end
$upscope $end
$enddefinitions $end
#0
b000 !
1"
1#
b000 $
b001 %
#62500000
0"
0#
#125000000
b001 !
1"
1#
b001 $
b010 %
#187500000
0"
0#
#250000000
b010 !
1"
1#
b010 $
b011 %
#312500000
0"
0#
#375000000
b011 !
1"
1#
b011 $
b100 %
#437500000
0"
0#
#500000000
b100 !
1"
1#
b100 $
b101 %
#562500000
0"
0#
#625000000
b101 !
1"
1#
b101 $
b110 %
#687500000
0"
0#
#750000000
b110 !
1"
1#
b110 $
b111 %
#812500000
0"
0#
#875000000
b111 !
1"
1#
b111 $
b000 %
#937500000
0"
0#
#1000000000
b000 !
1"
1#
b000 $
b001 %
#1062500000
0"
0#
#1125000000
b001 !
1"
1#
b001 $
b010 %
#1187500000
0"
0#
#1250000000
b010 !
1"
1#
b010 $
b011 %
#1312500000
0"
0#
#1375000000
b011 !
1"
1#
b011 $
b100 %
#1437500000
0"
0#
#1500000000
b100 !
1"
1#
b100 $
b101 %
#1562500000
0"
0#
#1625000000
b101 !
1"
1#
b101 $
b110 %
#1687500000
0"
0#
#1750000000
b110 !
1"
1#
b110 $
b111 %
#1812500000
0"
0#
#1875000000
b111 !
1"
1#
b111 $
b000 %
#1937500000
0"
0#
#2000000000
b000 !
1"
1#
b000 $
b001 %
#2062500000
0"
0#
#2125000000
b001 !
1"
1#
b001 $
b010 %
#2187500000
0"
0#
#2250000000
b010 !
1"
1#
b010 $
b011 %
#2312500000
0"
0#
#2375000000
b011 !
1"
1#
b011 $
b100 %
#2437500000
0"
0#
#2500000000
b100 !
1"
1#
b100 $
b101 %
#2562500000
0"
0#
#2625000000
b101 !
1"
1#
b101 $
b110 %
#2687500000
0"
0#
#2750000000
b110 !
1"
1#
b110 $
b111 %
#2812500000
0"
0#
#2875000000
b111 !
1"
1#
b111 $
b000 %
#2937500000
0"
0#
#3000000000
b000 !
1"
1#
b000 $
b001 %
#3062500000
0"
0#
