vhdl/blatt5/module.vcd
$date
  Sat Mar  8 21:12:49 2014
$end
$version
  GHDL v0
$end
$timescale
  1 fs
$end
$var reg 1 ! a $end
$var reg 1 " b $end
$var reg 1 # w $end
$var reg 1 $ x $end
$var reg 1 % y $end
$var reg 1 & z $end
$scope module module_0 $end
$var reg 1 ' a $end
$var reg 1 ( b $end
$var reg 1 ) w $end
$var reg 1 * x $end
$var reg 1 + y $end
$var reg 1 , z $end
$upscope $end
$enddefinitions $end
#0
0!
1"
1#
U$
U%
U&
0'
1(
1)
U*
U+
U,
#10000000
1$
1%
1&
1*
1+
1,
#15000000
0"
0#
0(
0)
#20000000
1!
1#
1'
1)
#25000000
0$
0*
#30000000
1$
1*
1+
1,
#35000000
0!
0#
0'
0)
#45000000
0$
0%
0&
0*
0+
0,
#50000000
1!
1#
1'
1)
#58000000
0!
0#
0'
0)
#60000000
1$
1&
1*
1,
#68000000
0$
0&
0*
0+
0,
