vhdl/blatt6/nbitcounter/syncreset/nbc.vcd
$date
  Sun Mar  9 15:02:38 2014
$end
$version
  GHDL v0
$end
$timescale
  1 fs
$end
$var reg 5 ! b[4:0] $end
$var reg 1 " clk $end
$var reg 1 # reset $end
$scope module nbc0 $end
$var reg 1 $ count $end
$var reg 1 % reset $end
$var reg 5 & cout[4:0] $end
$var reg 5 ' output[4:0] $end
$upscope $end
$enddefinitions $end
#0
b00001 !
1"
0#
1$
0%
b00001 &
b00001 '
#62500000
0"
0$
#125000000
b00010 !
1"
1$
b00010 &
b00010 '
#187500000
0"
0$
#250000000
b00011 !
1"
1$
b00011 &
b00011 '
#312500000
0"
0$
#375000000
b00100 !
1"
1$
b00100 &
b00100 '
#437500000
0"
0$
#500000000
b00101 !
1"
1$
b00101 &
b00101 '
#562500000
0"
0$
#625000000
b00110 !
1"
1$
b00110 &
b00110 '
#687500000
0"
0$
#750000000
b00111 !
1"
1$
b00111 &
b00111 '
#812500000
0"
0$
#875000000
b01000 !
1"
1$
b01000 &
b01000 '
#937500000
0"
0$
#1000000000
b01001 !
1"
1$
b01001 &
b01001 '
#1062500000
0"
0$
#1125000000
b01010 !
1"
1$
b01010 &
b01010 '
#1187500000
0"
1#
0$
1%
#1250000000
b01011 !
1"
1$
b01011 &
b01011 '
#1312500000
0"
0$
#1375000000
b01100 !
1"
1$
b01100 &
b01100 '
#1437500000
0"
0$
#1500000000
b01101 !
1"
0#
1$
0%
b01101 &
b01101 '
#1562500000
0"
0$
#1625000000
b01110 !
1"
1$
b01110 &
b01110 '
#1687500000
0"
0$
#1750000000
b01111 !
1"
1$
b01111 &
b01111 '
#1812500000
0"
0$
#1875000000
b10000 !
1"
1$
b10000 &
b10000 '
#1937500000
0"
0$
#2000000000
b10001 !
1"
1$
b10001 &
b10001 '
#2062500000
0"
0$
#2125000000
b00000 !
1"
1#
1$
1%
b00000 &
b00000 '
#2187500000
0"
0$
#2250000000
b00001 !
1"
1$
b00001 &
b00001 '
#2312500000
0"
0$
#2375000000
b00010 !
1"
1$
b00010 &
b00010 '
#2437500000
0"
0#
0$
0%
#2500000000
b00011 !
1"
1$
b00011 &
b00011 '
#2562500000
0"
0$
#2625000000
b00100 !
1"
1$
b00100 &
b00100 '
#2687500000
0"
0$
#2750000000
b00101 !
1"
1$
b00101 &
b00101 '
#2812500000
0"
0$
#2875000000
b00110 !
1"
1$
b00110 &
b00110 '
#2937500000
0"
0$
#3000000000
b00111 !
1"
1$
b00111 &
b00111 '
#3062500000
0"
0$
#3125000000
b01000 !
1"
1$
b01000 &
b01000 '
#3187500000
0"
0$
#3250000000
b01001 !
1"
1$
b01001 &
b01001 '
#3312500000
0"
0$
#3375000000
b01010 !
1"
1$
b01010 &
b01010 '
#3437500000
0"
0$
#3500000000
b01011 !
1"
1$
b01011 &
b01011 '
#3562500000
0"
0$
#3625000000
b01100 !
1"
1$
b01100 &
b01100 '
#3687500000
0"
0$
#3750000000
b01101 !
1"
1$
b01101 &
b01101 '
#3812500000
0"
0$
#3875000000
b01110 !
1"
1$
b01110 &
b01110 '
#3937500000
0"
0$
#4000000000
b01111 !
1"
1$
b01111 &
b01111 '
#4062500000
0"
0$
#4125000000
b10000 !
1"
1$
b10000 &
b10000 '
#4187500000
0"
0$
#4250000000
b10001 !
1"
1$
b10001 &
b10001 '
#4312500000
0"
0$
#4375000000
b10010 !
1"
1$
b10010 &
b10010 '
#4437500000
0"
0$
#4500000000
b10011 !
1"
1$
b10011 &
b10011 '
#4562500000
0"
0$
#4625000000
b10100 !
1"
1$
b10100 &
b10100 '
#4687500000
0"
0$
#4750000000
b10101 !
1"
1$
b10101 &
b10101 '
#4812500000
0"
0$
#4875000000
b10110 !
1"
1$
b10110 &
b10110 '
#4937500000
0"
0$
#5000000000
b10111 !
1"
1$
b10111 &
b10111 '
#5062500000
0"
0$
#5125000000
b11000 !
1"
1$
b11000 &
b11000 '
#5187500000
0"
0$
#5250000000
b11001 !
1"
1$
b11001 &
b11001 '
#5312500000
0"
0$
#5375000000
b11010 !
1"
1$
b11010 &
b11010 '
#5437500000
0"
0$
#5500000000
b11011 !
1"
1$
b11011 &
b11011 '
#5562500000
0"
0$
#5625000000
b11100 !
1"
1$
b11100 &
b11100 '
#5687500000
0"
0$
#5750000000
b11101 !
1"
1$
b11101 &
b11101 '
#5812500000
0"
0$
#5875000000
b11110 !
1"
1$
b11110 &
b11110 '
#5937500000
0"
0$
#6000000000
b11111 !
1"
1$
b11111 &
b11111 '
#6062500000
0"
0$
#6125000000
b00000 !
1"
1$
b00000 &
b00000 '
#6187500000
0"
0$
